Data Management Overview: Session 4
…
And the class of all of our variables in this data are character

You can ignore all this attr spec stuff, this happens because we are reading in a csv. It doesn't really matter to us right now.

---

# Recap Packages

```r
print(pet_names)
```

```
*# A tibble: 52,519 x 7
   license_issue_date license_number animals_name species primary_breed         
*   <chr>              <chr>          <chr>        <chr>   <chr>                 
 1 November 16 2018   8002756        Wall-E       Dog     Mixed Breed, Medium (~
 2 November 11 2018   S124529        Andre        Dog     Terrier, Jack Russell 
 3 November 21 2018   903793         Mac          Dog     Retriever, Labrador   
 4 November 23 2018   824666         Melb         Cat     Domestic Shorthair    
 5 December 30 2018   S119138        Gingersnap   Cat     Domestic Shorthair    
 6 December 16 2018   S138529        Cody         Dog     Retriever, Labrador   
 7 October 04 2017    580652         Millie       Dog     Terrier, Boston       
 8 August 09 2018     S142558        Sebastian    Cat     Domestic Shorthair    
 9 August 20 2018     S142546        Madeline     Cat     Domestic Shorthair    
10 December 08 2018   S123830        Cleo         Cat     Domestic Shorthair    
# ... with 52,509 more rows, and 2 more variables: secondary_breed <chr>,
#   zip_code <chr>
```
…
